2.3 — OLS Linear Regression
…
- `augment()` creates useful new variables in the stored `lm` object
    - `.fitted` are fitted (predicted) values from model, i.e. `\(\hat{Y}_i\)`
    - `.resid` are residuals (errors) from model, i.e. `\(\hat{u}_i\)`
]

.pull-right[
.code40[

```r
# add regression-based values to data
augment(school_reg)
```

```
## # A tibble: 420 x 8
##    testscr   str .fitted .resid .std.resid    .hat .sigma  .cooksd
##      <dbl> <dbl>   <dbl>  <dbl>      <dbl>   <dbl>  <dbl>    <dbl>
##  1    691.  17.9    658.   32.7      1.76  0.00442   18.5 0.00689 
##  2    661.  21.5    650.   11.3      0.612 0.00475   18.6 0.000893
##  3    644.  18.7    656.  -12.7     -0.685 0.00297   18.6 0.000700
##  4    648.  17.4    659.  -11.7     -0.629 0.00586   18.6 0.00117 
##  5    641.  18.7    656.  -15.5     -0.836 0.00301   18.6 0.00105 
##  6    606.  21.4    650.  -44.6     -2.40  0.00446   18.5 0.0130  
##  7    607.  19.5    654.  -47.7     -2.57  0.00239   18.5 0.00794 
##  8    609   20.9    651.  -42.3     -2.28  0.00343   18.5 0.00895 
##  9    612.  19.9    653.  -41.0     -2.21  0.00244   18.5 0.00597 
## 10    613.  20.8    652.  -38.9     -2.09  0.00329   18.5 0.00723 
## # … with 410 more rows
```
…
