Problem Set 1
…
Question 5

Part A

Make a table of the most common name for boys by year between 1980-2017.4

babynames %>%
  group_by(year) %>% # we want one observation per year
  filter(sex == "M",
         year>1979) %>% # or >==1980
  arrange(desc(n))%>% # start with largest n first
  slice(1) # take first row only

## # A tibble: 38 x 5
## # Groups:   year [38]
##     year sex   name        n   prop
##    <dbl> <chr> <chr>   <int>  <dbl>
##  1  1980 M     Michael 68693 0.0370
##  2  1981 M     Michael 68765 0.0369
##  3  1982 M     Michael 68228 0.0362
##  4  1983 M     Michael 67995 0.0365
##  5  1984 M     Michael 67736 0.0361
##  6  1985 M     Michael 64906 0.0337
##  7  1986 M     Michael 64205 0.0334
##  8  1987 M     Michael 63647 0.0326
##  9  1988 M     Michael 64133 0.0320
## 10  1989 M     Michael 65382 0.0312
## #  with 28 more rows

Part B

Now do the same for girls.

babynames %>%
  group_by(year) %>% # we want one observation per year
  filter(sex == "F",
         year>1979) %>% # or >==1980
  arrange(desc(n))%>% # start with largest n first
  slice(1) # take first row only

## # A tibble: 38 x 5
## # Groups:   year [38]
##     year sex   name         n   prop
##    <dbl> <chr> <chr>    <int>  <dbl>
##  1  1980 F     Jennifer 58376 0.0328
##  2  1981 F     Jennifer 57049 0.0319
##  3  1982 F     Jennifer 57115 0.0315
##  4  1983 F     Jennifer 54342 0.0304
##  5  1984 F     Jennifer 50561 0.0280
##  6  1985 F     Jessica  48346 0.0262
##  7  1986 F     Jessica  52674 0.0285
##  8  1987 F     Jessica  55991 0.0299
##  9  1988 F     Jessica  51538 0.0268
## 10  1989 F     Jessica  47885 0.0240
## #  with 28 more rows
…
Theres a lot to this, so Ill break this up step by step and show you what happens at each major step.

We want to find the names where 48% to 52% of the babies with the name are male, as I defined in the footnote. First lets mutate a variable to figure out how many babies with a particular name are male.

To do this, well need to make a two variables to count the number of males and females of each name each year. Well use the ifelse() function for each:

Make a male variable where, for each name in each year, if sex=="M", then count the number of males (n) that year, otherwise set it equal to 0.

Make a female variable where, for each name in each year, if sex=="F", then count the number of females (n) that year, otherwise set it equal to 0.

babynames %>%
  mutate(male = ifelse(sex == "M", n, 0),
         female = ifelse(sex == "F", n, 0))

## # A tibble: 1,924,665 x 7
##     year sex   name          n   prop  male female
##    <dbl> <chr> <chr>     <int>  <dbl> <dbl>  <dbl>
##  1  1880 F     Mary       7065 0.0724     0   7065
##  2  1880 F     Anna       2604 0.0267     0   2604
##  3  1880 F     Emma       2003 0.0205     0   2003
##  4  1880 F     Elizabeth  1939 0.0199     0   1939
##  5  1880 F     Minnie     1746 0.0179     0   1746
##  6  1880 F     Margaret   1578 0.0162     0   1578
##  7  1880 F     Ida        1472 0.0151     0   1472
##  8  1880 F     Alice      1414 0.0145     0   1414
##  9  1880 F     Bertha     1320 0.0135     0   1320
## 10  1880 F     Sarah      1288 0.0132     0   1288
## #  with 1,924,655 more rows

Now with this variable, we want to count the total number of males and females with each name over the entire dataset. Lets first group_by(name) so well get one row for every name. We will summarize() and take the sum of our male and of our female variables.

babynames %>%
  mutate(male = ifelse(sex == "M", n, 0),
         female = ifelse(sex == "F", n, 0)) %>%
  group_by(name) %>%
    summarize(Male = sum(male),
              Female = sum(female))

## `summarise()` ungrouping output (override with `.groups` argument)

## # A tibble: 97,310 x 3
##    name       Male Female
##    <chr>     <dbl>  <dbl>
##  1 Aaban       107      0
##  2 Aabha         0     35
##  3 Aabid        10      0
##  4 Aabir         5      0
##  5 Aabriella     0     32
##  6 Aada          0      5
##  7 Aadam       254      0
##  8 Aadan       130      0
##  9 Aadarsh     199      0
## 10 Aaden      4653      5
## #  with 97,300 more rows

Now, we want to figure out what fraction of each name is Male or Female. It doesnt matter which we do here, Ill do Male. mutate() a new variable Ill call perc_male for the percent of the name being for Male babies. It takes the summed variables we made before, and takes the fraction that are Male, multiplying by 100 to get percents (which isnt necessary, but is easy to read).

babynames %>%
  mutate(male = ifelse(sex == "M", n, 0),
         female = ifelse(sex == "F", n, 0)) %>%
  group_by(name) %>%
    summarize(Male = sum(male),
              Female = sum(female))%>%
  mutate(perc_male = (Male/(Male+Female)*100))

## `summarise()` ungrouping output (override with `.groups` argument)

## # A tibble: 97,310 x 4
##    name       Male Female perc_male
##    <chr>     <dbl>  <dbl>     <dbl>
##  1 Aaban       107      0     100  
##  2 Aabha         0     35       0  
##  3 Aabid        10      0     100  
##  4 Aabir         5      0     100  
##  5 Aabriella     0     32       0  
##  6 Aada          0      5       0  
##  7 Aadam       254      0     100  
##  8 Aadan       130      0     100  
##  9 Aadarsh     199      0     100  
## 10 Aaden      4653      5      99.9
## #  with 97,300 more rows
…
babynames %>%
  mutate(male = ifelse(sex == "M", n, 0),
         female = ifelse(sex == "F", n, 0)) %>%
  group_by(name) %>%
    summarize(Male = sum(male),
              Female = sum(female))%>%
  mutate(perc_male = (Male/(Male+Female)*100)) %>%
  arrange(perc_male) %>%
  filter(perc_male > 48,
         perc_male < 52)

## `summarise()` ungrouping output (override with `.groups` argument)

## # A tibble: 266 x 4
##    name        Male Female perc_male
##    <chr>      <dbl>  <dbl>     <dbl>
##  1 Demetrice   1623   1754      48.1
##  2 Shenan        25     27      48.1
##  3 Yael        3162   3414      48.1
##  4 Harlo        164    177      48.1
##  5 Daylyn       202    218      48.1
##  6 Oluwatosin   139    150      48.1
##  7 Chaning       13     14      48.1
##  8 Kirin        351    378      48.1
##  9 Odera         13     14      48.1
## 10 Jireh        644    693      48.2
## #  with 256 more rows
…
## Parsed with column specification:
## cols(
##   X1 = col_double(),
##   Country = col_character(),
##   ISO = col_character(),
##   ef = col_double(),
##   gdp = col_double(),
##   continent = col_character()
## )

# look at each dataframe
polfreedom

## # A tibble: 209 x 40
##    `Country/Territ Status `PR Rating` `CL Rating`    A1    A2    A3     A    B1
##    <chr>            <chr>        <dbl>       <dbl> <dbl> <dbl> <dbl> <dbl> <dbl>
##  1 Abkhazia         PF               4           5     3     2     1     6     2
##  2 Afghanistan      NF               5           6     1     0     1     2     2
##  3 Albania          PF               3           3     3     3     2     8     3
##  4 Algeria          NF               6           5     1     1     1     3     1
##  5 Andorra          F                1           1     4     4     4    12     4
##  6 Angola           NF               6           6     0     2     1     3     2
##  7 Antigua and Bar F                2           2     4     4     4    12     3
##  8 Argentina        F                2           2     4     4     3    11     4
##  9 Armenia          PF               5           4     1     1     2     4     2
## 10 Australia        F                1           1     4     4     4    12     4
## #  with 199 more rows, and 31 more variables: B2 <dbl>, B3 <dbl>, B4 <dbl>,
## #   B <dbl>, C1 <dbl>, C2 <dbl>, C3 <dbl>, C <dbl>, `Add Q` <dbl>, PR <dbl>,
## #   D1 <dbl>, D2 <dbl>, D3 <dbl>, D4 <dbl>, D <dbl>, E1 <dbl>, E2 <dbl>,
## #   E3 <dbl>, E <dbl>, F1 <dbl>, F2 <dbl>, F3 <dbl>, F4 <dbl>, F <dbl>,
## #   G1 <dbl>, G2 <dbl>, G3 <dbl>, G4 <dbl>, G <dbl>, CL <dbl>, Total <dbl>

econfreedom

## # A tibble: 112 x 6
##       X1 Country    ISO      ef    gdp continent
##    <dbl> <chr>      <chr> <dbl>  <dbl> <chr>    
##  1     1 Albania    ALB    7.4   4543. Europe   
##  2     2 Algeria    DZA    5.15  4784. Africa   
##  3     3 Angola     AGO    5.08  4153. Africa   
##  4     4 Argentina  ARG    4.81 10502. Americas 
##  5     5 Australia  AUS    7.93 54688. Oceania  
##  6     6 Austria    AUT    7.56 47604. Europe   
##  7     7 Bahrain    BHR    7.6  22348. Asia     
##  8     8 Bangladesh BGD    6.35   973. Asia     
##  9     9 Belgium    BEL    7.51 45181. Europe   
## 10    10 Benin      BEN    6.22   805. Africa   
## #  with 102 more rows
…
